…
### Script to download data (from API/web)

This is a top option if possible, and can be achieved through lots of data providers. World Bank for example makes GDP per capita available for direct download (so you don't need to tell the reader what to do):

``` r
data_fetch <- jsonlite::read_json(
  glue::glue(
    "https://api.worldbank.org/v2/country/all/indicator/NY.GDP.PCAP.CD?date=1990:2023&format=json&per_page=9000"
  ),
  simplifyVector = TRUE
)

tibble::as_tibble(data_fetch[[2]]) 
#> # A tibble: 9,000 × 8
#>    indicator$id  country$id countryiso3code date  value unit  obs_status decimal
#>    <chr>         <chr>      <chr>           <chr> <dbl> <chr> <chr>        <int>
#>  1 NY.GDP.PCAP.… ZH         AFE             2023  1571. ""    ""               1
#>  2 NY.GDP.PCAP.… ZH         AFE             2022  1679. ""    ""               1
#>  3 NY.GDP.PCAP.… ZH         AFE             2021  1562. ""    ""               1
#>  4 NY.GDP.PCAP.… ZH         AFE             2020  1352. ""    ""               1
#>  5 NY.GDP.PCAP.… ZH         AFE             2019  1507. ""    ""               1
#>  6 NY.GDP.PCAP.… ZH         AFE             2018  1552. ""    ""               1
#>  7 NY.GDP.PCAP.… ZH         AFE             2017  1528. ""    ""               1
#>  8 NY.GDP.PCAP.… ZH         AFE             2016  1334. ""    ""               1
#>  9 NY.GDP.PCAP.… ZH         AFE             2015  1499. ""    ""               1
#> 10 NY.GDP.PCAP.… ZH         AFE             2014  1690. ""    ""               1
#> # ℹ 8,990 more rows
#> # ℹ 2 more variables: indicator$value <chr>, country$value <chr>
```
…
